{
  "$schema": "http://json-schema.org/draft-07/schema#",
  "description": "Freedom Platform Webhook Callback JSON Schema",
  "type": "object",
  "properties": {
    "timestamp": {
      "$ref": "#/definitions/timestamp"
    },
    "context": {
      "$ref": "#/definitions/context"
    },
    "element": {
      "$ref": "#/definitions/element"
    },
    "telemetry": {
      "$ref": "#/definitions/telemetry"
    }
  },
  "required": ["timestamp", "context", "element", "telemetry"],
  "definitions": {
    "timestamp": {
      "type": "number"
    },
    "context": {
      "type": "object",
      "properties": {
        "tenant": {
          "type": "string"
        }
      },
      "required": ["tenant"]
    },
    "element": {
      "type": "object",
      "properties": {
        "urn": {
          "type": "string"
        },
        "name": {
          "type": "string"
        },
        "label": {
          "type": "string"
        }
      },
      "required": ["urn", "name"]
    },
    "metric_value": {
      "oneOf": [{
	      "type": ["number", "boolean"]
      }, {
        "$ref": "#/definitions/metric_value_numeric"
      }, {
        "$ref": "#/definitions/metric_value_boolean"
      }]
    },
    "metric_value_numeric": {
      "type": "object",
      "properties": {
        "units": {
          "type": "string"
        },
        "value": {
          "type": "number"
        }
      },
      "required": ["value"]
    },
    "metric_value_boolean": {
      "type": "object",
      "properties": {
        "units": {
          "type": "string"
        },
        "value": {
          "type": "boolean"
        }
      },
      "required": ["value"]
    },
    "telemetry": {
      "type": "object",
      "additionalProperties": {
        "$ref": "#/definitions/metric_value"
      }
    }
  }
}
